[gd_scene load_steps=3 format=2]

[ext_resource path="res://Levels/Objects/LevelEnd.gd" type="Script" id=1]

[sub_resource type="RectangleShape2D" id=1]
extents = Vector2( 32, 32 )

[node name="LevelEnd" type="Area2D"]
collision_layer = 0
collision_mask = 2
script = ExtResource( 1 )

[node name="CollisionShape2D" type="CollisionShape2D" parent="."]
shape = SubResource( 1 )
